IS415-GAA - Hands-on Exercise 1: Geospatial Data Science with R
…
ℹ Use `spec()` to retrieve the full column specification for this data.
ℹ Specify the column types or set `show_col_types = FALSE` to quiet this message.

After importing the data file into R, it is important for us to examine if the data file has been imported correctly.

The code chunk below shows list() of Base R instead of glimpse() is used to do the job.

list(listings) 

[[1]]
# A tibble: 3,540 × 18
       id name      host_id host_name neighbourhood_group neighbourhood latitude
    <dbl> <chr>       <dbl> <chr>     <chr>               <chr>            <dbl>
 1  71609 Ensuite …  367042 Belinda   East Region         Tampines          1.35
 2  71896 B&B  Roo…  367042 Belinda   East Region         Tampines          1.35
 3  71903 Room 2-n…  367042 Belinda   East Region         Tampines          1.35
 4 275343 10min wa… 1439258 Kay       Central Region      Bukit Merah       1.29
 5 275344 15 mins … 1439258 Kay       Central Region      Bukit Merah       1.29
 6 289234 Booking …  367042 Belinda   East Region         Tampines          1.34
 7 294281 5 mins w… 1521514 Elizabeth Central Region      Newton            1.31
 8 324945 Comforta… 1439258 Kay       Central Region      Bukit Merah       1.29
 9 330095 Relaxing… 1439258 Kay       Central Region      Bukit Merah       1.29
10 344803 Budget s…  367042 Belinda   East Region         Tampines          1.35
# ℹ 3,530 more rows
# ℹ 11 more variables: longitude <dbl>, room_type <chr>, price <dbl>,
#   minimum_nights <dbl>, number_of_reviews <dbl>, last_review <date>,
#   reviews_per_month <dbl>, calculated_host_listings_count <dbl>,
#   availability_365 <dbl>, number_of_reviews_ltm <dbl>, license <chr>
…
